172.16.10.13 - - [21/Sep/2020:21:26:03 +0000] "HEAD /erp/api/sub-module/Client/Client HTTP/1.1" 301 0 "-" "python-requests/2.21.0"
172.16.10.13 - - [21/Sep/2020:21:26:03 +0000] "HEAD /erp/api/sub-module/Client/Client/ HTTP/1.1" 403 0 "-" "python-requests/2.21.0"
172.16.10.13 - - [21/Sep/2020:21:26:27 +0000] "HEAD /erp/api/sub-module/Client/Client HTTP/1.1" 301 0 "-" "python-requests/2.21.0"
172.16.10.13 - - [21/Sep/2020:21:26:27 +0000] "HEAD /erp/api/sub-module/Client/Client/ HTTP/1.1" 403 0 "-" "python-requests/2.21.0"
172.16.10.13 - - [21/Sep/2020:21:27:51 +0000] "HEAD /erp/api/sub-module/Client/Client HTTP/1.1" 301 0 "-" "python-requests/2.21.0"
172.16.10.13 - - [21/Sep/2020:21:27:51 +0000] "HEAD /erp/api/sub-module/Client/Client/ HTTP/1.1" 403 0 "-" "python-requests/2.21.0"
172.16.10.13 - - [21/Sep/2020:21:27:55 +0000] "HEAD /erp/api/sub-module/Client/Client HTTP/1.1" 301 0 "-" "python-requests/2.21.0"
172.16.10.13 - - [21/Sep/2020:21:27:55 +0000] "HEAD /erp/api/sub-module/Client/Client/ HTTP/1.1" 403 0 "-" "python-requests/2.21.0"
172.16.10.13 - - [21/Sep/2020:21:28:29 +0000] "HEAD /erp/api/sub-module/Client/Client HTTP/1.1" 301 0 "-" "python-requests/2.21.0"
172.16.10.13 - - [21/Sep/2020:21:28:29 +0000] "HEAD /erp/api/sub-module/Client/Client/ HTTP/1.1" 403 0 "-" "python-requests/2.21.0"
172.16.10.50 - - [21/Sep/2020:21:28:37 +0000] "POST /admin/rest_framework_api_key/apikey/ HTTP/1.1" 200 1468 "http://172.16.69.110/admin/rest_framework_api_key/apikey/" "Mozilla/5.0 (Windows NT 10.0; Win64; x64) AppleWebKit/537.36 (KHTML, like Gecko) Chrome/84.0.4147.135 Safari/537.36"
172.16.10.50 - - [21/Sep/2020:21:28:37 +0000] "GET /static/admin/css/base.css HTTP/1.1" 304 0 "http://172.16.69.110/admin/rest_framework_api_key/apikey/" "Mozilla/5.0 (Windows NT 10.0; Win64; x64) AppleWebKit/537.36 (KHTML, like Gecko) Chrome/84.0.4147.135 Safari/537.36"
172.16.10.50 - - [21/Sep/2020:21:28:37 +0000] "GET /static/admin/js/vendor/jquery/jquery.js HTTP/1.1" 304 0 "http://172.16.69.110/admin/rest_framework_api_key/apikey/" "Mozilla/5.0 (Windows NT 10.0; Win64; x64) AppleWebKit/537.36 (KHTML, like Gecko) Chrome/84.0.4147.135 Safari/537.36"
172.16.10.50 - - [21/Sep/2020:21:28:37 +0000] "GET /static/admin/js/jquery.init.js HTTP/1.1" 304 0 "http://172.16.69.110/admin/rest_framework_api_key/apikey/" "Mozilla/5.0 (Windows NT 10.0; Win64; x64) AppleWebKit/537.36 (KHTML, like Gecko) Chrome/84.0.4147.135 Safari/537.36"
172.16.10.50 - - [21/Sep/2020:21:28:37 +0000] "GET /static/admin/js/core.js HTTP/1.1" 304 0 "http://172.16.69.110/admin/rest_framework_api_key/apikey/" "Mozilla/5.0 (Windows NT 10.0; Win64; x64) AppleWebKit/537.36 (KHTML, like Gecko) Chrome/84.0.4147.135 Safari/537.36"
172.16.10.50 - - [21/Sep/2020:21:28:37 +0000] "GET /static/admin/js/admin/RelatedObjectLookups.js HTTP/1.1" 304 0 "http://172.16.69.110/admin/rest_framework_api_key/apikey/" "Mozilla/5.0 (Windows NT 10.0; Win64; x64) AppleWebKit/537.36 (KHTML, like Gecko) Chrome/84.0.4147.135 Safari/537.36"
172.16.10.50 - - [21/Sep/2020:21:28:37 +0000] "GET /static/admin/js/cancel.js HTTP/1.1" 200 409 "http://172.16.69.110/admin/rest_framework_api_key/apikey/" "Mozilla/5.0 (Windows NT 10.0; Win64; x64) AppleWebKit/537.36 (KHTML, like Gecko) Chrome/84.0.4147.135 Safari/537.36"
172.16.10.50 - - [21/Sep/2020:21:28:37 +0000] "GET /static/admin/css/responsive.css HTTP/1.1" 304 0 "http://172.16.69.110/admin/rest_framework_api_key/apikey/" "Mozilla/5.0 (Windows NT 10.0; Win64; x64) AppleWebKit/537.36 (KHTML, like Gecko) Chrome/84.0.4147.135 Safari/537.36"
172.16.10.50 - - [21/Sep/2020:21:28:37 +0000] "GET /static/admin/js/actions.js HTTP/1.1" 304 0 "http://172.16.69.110/admin/rest_framework_api_key/apikey/" "Mozilla/5.0 (Windows NT 10.0; Win64; x64) AppleWebKit/537.36 (KHTML, like Gecko) Chrome/84.0.4147.135 Safari/537.36"
172.16.10.50 - - [21/Sep/2020:21:28:37 +0000] "GET /static/admin/js/urlify.js HTTP/1.1" 304 0 "http://172.16.69.110/admin/rest_framework_api_key/apikey/" "Mozilla/5.0 (Windows NT 10.0; Win64; x64) AppleWebKit/537.36 (KHTML, like Gecko) Chrome/84.0.4147.135 Safari/537.36"
172.16.10.50 - - [21/Sep/2020:21:28:37 +0000] "GET /static/admin/js/prepopulate.js HTTP/1.1" 304 0 "http://172.16.69.110/admin/rest_framework_api_key/apikey/" "Mozilla/5.0 (Windows NT 10.0; Win64; x64) AppleWebKit/537.36 (KHTML, like Gecko) Chrome/84.0.4147.135 Safari/537.36"
172.16.10.50 - - [21/Sep/2020:21:28:37 +0000] "GET /static/admin/js/vendor/xregexp/xregexp.js HTTP/1.1" 304 0 "http://172.16.69.110/admin/rest_framework_api_key/apikey/" "Mozilla/5.0 (Windows NT 10.0; Win64; x64) AppleWebKit/537.36 (KHTML, like Gecko) Chrome/84.0.4147.135 Safari/537.36"
172.16.10.50 - - [21/Sep/2020:21:28:39 +0000] "POST /admin/rest_framework_api_key/apikey/ HTTP/1.1" 302 0 "http://172.16.69.110/admin/rest_framework_api_key/apikey/" "Mozilla/5.0 (Windows NT 10.0; Win64; x64) AppleWebKit/537.36 (KHTML, like Gecko) Chrome/84.0.4147.135 Safari/537.36"
172.16.10.50 - - [21/Sep/2020:21:28:39 +0000] "GET /admin/rest_framework_api_key/apikey/ HTTP/1.1" 200 1682 "http://172.16.69.110/admin/rest_framework_api_key/apikey/" "Mozilla/5.0 (Windows NT 10.0; Win64; x64) AppleWebKit/537.36 (KHTML, like Gecko) Chrome/84.0.4147.135 Safari/537.36"
172.16.10.50 - - [21/Sep/2020:21:28:39 +0000] "GET /static/admin/css/changelists.css HTTP/1.1" 304 0 "http://172.16.69.110/admin/rest_framework_api_key/apikey/" "Mozilla/5.0 (Windows NT 10.0; Win64; x64) AppleWebKit/537.36 (KHTML, like Gecko) Chrome/84.0.4147.135 Safari/537.36"
172.16.10.50 - - [21/Sep/2020:21:28:39 +0000] "GET /admin/jsi18n/ HTTP/1.1" 200 7403 "http://172.16.69.110/admin/rest_framework_api_key/apikey/" "Mozilla/5.0 (Windows NT 10.0; Win64; x64) AppleWebKit/537.36 (KHTML, like Gecko) Chrome/84.0.4147.135 Safari/537.36"
172.16.10.50 - - [21/Sep/2020:21:28:39 +0000] "GET /static/admin/img/search.svg HTTP/1.1" 304 0 "http://172.16.69.110/admin/rest_framework_api_key/apikey/" "Mozilla/5.0 (Windows NT 10.0; Win64; x64) AppleWebKit/537.36 (KHTML, like Gecko) Chrome/84.0.4147.135 Safari/537.36"
172.16.10.50 - - [21/Sep/2020:21:28:39 +0000] "GET /static/admin/img/icon-yes.svg HTTP/1.1" 304 0 "http://172.16.69.110/static/admin/css/base.css" "Mozilla/5.0 (Windows NT 10.0; Win64; x64) AppleWebKit/537.36 (KHTML, like Gecko) Chrome/84.0.4147.135 Safari/537.36"
172.16.10.50 - - [21/Sep/2020:21:28:39 +0000] "GET /static/admin/img/tooltag-add.svg HTTP/1.1" 304 0 "http://172.16.69.110/static/admin/css/base.css" "Mozilla/5.0 (Windows NT 10.0; Win64; x64) AppleWebKit/537.36 (KHTML, like Gecko) Chrome/84.0.4147.135 Safari/537.36"
172.16.10.50 - - [21/Sep/2020:21:28:41 +0000] "GET /admin/rest_framework_api_key/apikey/add/ HTTP/1.1" 200 1909 "http://172.16.69.110/admin/rest_framework_api_key/apikey/" "Mozilla/5.0 (Windows NT 10.0; Win64; x64) AppleWebKit/537.36 (KHTML, like Gecko) Chrome/84.0.4147.135 Safari/537.36"
172.16.10.50 - - [21/Sep/2020:21:28:41 +0000] "GET /static/admin/css/forms.css HTTP/1.1" 304 0 "http://172.16.69.110/admin/rest_framework_api_key/apikey/add/" "Mozilla/5.0 (Windows NT 10.0; Win64; x64) AppleWebKit/537.36 (KHTML, like Gecko) Chrome/84.0.4147.135 Safari/537.36"
172.16.10.50 - - [21/Sep/2020:21:28:41 +0000] "GET /static/admin/js/calendar.js HTTP/1.1" 304 0 "http://172.16.69.110/admin/rest_framework_api_key/apikey/add/" "Mozilla/5.0 (Windows NT 10.0; Win64; x64) AppleWebKit/537.36 (KHTML, like Gecko) Chrome/84.0.4147.135 Safari/537.36"
172.16.10.50 - - [21/Sep/2020:21:28:41 +0000] "GET /static/admin/js/admin/DateTimeShortcuts.js HTTP/1.1" 304 0 "http://172.16.69.110/admin/rest_framework_api_key/apikey/add/" "Mozilla/5.0 (Windows NT 10.0; Win64; x64) AppleWebKit/537.36 (KHTML, like Gecko) Chrome/84.0.4147.135 Safari/537.36"
172.16.10.50 - - [21/Sep/2020:21:28:41 +0000] "GET /static/admin/js/change_form.js HTTP/1.1" 304 0 "http://172.16.69.110/admin/rest_framework_api_key/apikey/add/" "Mozilla/5.0 (Windows NT 10.0; Win64; x64) AppleWebKit/537.36 (KHTML, like Gecko) Chrome/84.0.4147.135 Safari/537.36"
172.16.10.50 - - [21/Sep/2020:21:28:41 +0000] "GET /static/admin/js/prepopulate_init.js HTTP/1.1" 304 0 "http://172.16.69.110/admin/rest_framework_api_key/apikey/add/" "Mozilla/5.0 (Windows NT 10.0; Win64; x64) AppleWebKit/537.36 (KHTML, like Gecko) Chrome/84.0.4147.135 Safari/537.36"
172.16.10.50 - - [21/Sep/2020:21:28:41 +0000] "GET /admin/jsi18n/ HTTP/1.1" 200 7403 "http://172.16.69.110/admin/rest_framework_api_key/apikey/add/" "Mozilla/5.0 (Windows NT 10.0; Win64; x64) AppleWebKit/537.36 (KHTML, like Gecko) Chrome/84.0.4147.135 Safari/537.36"
172.16.10.50 - - [21/Sep/2020:21:28:41 +0000] "GET /static/admin/css/widgets.css HTTP/1.1" 304 0 "http://172.16.69.110/static/admin/css/forms.css" "Mozilla/5.0 (Windows NT 10.0; Win64; x64) AppleWebKit/537.36 (KHTML, like Gecko) Chrome/84.0.4147.135 Safari/537.36"
172.16.10.50 - - [21/Sep/2020:21:28:41 +0000] "GET /static/admin/img/icon-calendar.svg HTTP/1.1" 304 0 "http://172.16.69.110/static/admin/css/widgets.css" "Mozilla/5.0 (Windows NT 10.0; Win64; x64) AppleWebKit/537.36 (KHTML, like Gecko) Chrome/84.0.4147.135 Safari/537.36"
172.16.10.50 - - [21/Sep/2020:21:28:41 +0000] "GET /static/admin/img/icon-clock.svg HTTP/1.1" 304 0 "http://172.16.69.110/static/admin/css/widgets.css" "Mozilla/5.0 (Windows NT 10.0; Win64; x64) AppleWebKit/537.36 (KHTML, like Gecko) Chrome/84.0.4147.135 Safari/537.36"
172.16.10.50 - - [21/Sep/2020:21:28:46 +0000] "POST /admin/rest_framework_api_key/apikey/add/ HTTP/1.1" 302 0 "http://172.16.69.110/admin/rest_framework_api_key/apikey/add/" "Mozilla/5.0 (Windows NT 10.0; Win64; x64) AppleWebKit/537.36 (KHTML, like Gecko) Chrome/84.0.4147.135 Safari/537.36"
172.16.10.50 - - [21/Sep/2020:21:28:47 +0000] "GET /admin/rest_framework_api_key/apikey/ HTTP/1.1" 200 2681 "http://172.16.69.110/admin/rest_framework_api_key/apikey/add/" "Mozilla/5.0 (Windows NT 10.0; Win64; x64) AppleWebKit/537.36 (KHTML, like Gecko) Chrome/84.0.4147.135 Safari/537.36"
172.16.10.50 - - [21/Sep/2020:21:28:47 +0000] "GET /admin/jsi18n/ HTTP/1.1" 200 7403 "http://172.16.69.110/admin/rest_framework_api_key/apikey/" "Mozilla/5.0 (Windows NT 10.0; Win64; x64) AppleWebKit/537.36 (KHTML, like Gecko) Chrome/84.0.4147.135 Safari/537.36"
172.16.10.50 - - [21/Sep/2020:21:28:47 +0000] "GET /static/admin/img/icon-no.svg HTTP/1.1" 304 0 "http://172.16.69.110/admin/rest_framework_api_key/apikey/" "Mozilla/5.0 (Windows NT 10.0; Win64; x64) AppleWebKit/537.36 (KHTML, like Gecko) Chrome/84.0.4147.135 Safari/537.36"
172.16.10.50 - - [21/Sep/2020:21:28:47 +0000] "GET /static/admin/img/icon-alert.svg HTTP/1.1" 304 0 "http://172.16.69.110/static/admin/css/base.css" "Mozilla/5.0 (Windows NT 10.0; Win64; x64) AppleWebKit/537.36 (KHTML, like Gecko) Chrome/84.0.4147.135 Safari/537.36"
172.16.10.50 - - [21/Sep/2020:21:28:47 +0000] "GET /static/admin/img/sorting-icons.svg HTTP/1.1" 304 0 "http://172.16.69.110/static/admin/css/base.css" "Mozilla/5.0 (Windows NT 10.0; Win64; x64) AppleWebKit/537.36 (KHTML, like Gecko) Chrome/84.0.4147.135 Safari/537.36"
172.16.10.13 - - [21/Sep/2020:21:30:14 +0000] "HEAD /erp/api/sub-module/Client/Client HTTP/1.1" 301 0 "-" "python-requests/2.21.0"
172.16.10.13 - - [21/Sep/2020:21:30:14 +0000] "HEAD /erp/api/sub-module/Client/Client/ HTTP/1.1" 403 0 "-" "python-requests/2.21.0"
172.16.10.13 - - [21/Sep/2020:21:30:38 +0000] "HEAD /erp/api/sub-module/Client/Client HTTP/1.1" 301 0 "-" "python-requests/2.21.0"
172.16.10.13 - - [21/Sep/2020:21:30:38 +0000] "HEAD /erp/api/sub-module/Client/Client/ HTTP/1.1" 200 0 "-" "python-requests/2.21.0"
172.16.10.50 - - [21/Sep/2020:21:32:34 +0000] "GET /admin/ HTTP/1.1" 200 2066 "http://172.16.69.110/admin/rest_framework_api_key/apikey/" "Mozilla/5.0 (Windows NT 10.0; Win64; x64) AppleWebKit/537.36 (KHTML, like Gecko) Chrome/84.0.4147.135 Safari/537.36"
172.16.10.50 - - [21/Sep/2020:21:32:34 +0000] "GET /static/admin/css/base.css HTTP/1.1" 304 0 "http://172.16.69.110/admin/" "Mozilla/5.0 (Windows NT 10.0; Win64; x64) AppleWebKit/537.36 (KHTML, like Gecko) Chrome/84.0.4147.135 Safari/537.36"
172.16.10.50 - - [21/Sep/2020:21:32:34 +0000] "GET /static/admin/css/dashboard.css HTTP/1.1" 304 0 "http://172.16.69.110/admin/" "Mozilla/5.0 (Windows NT 10.0; Win64; x64) AppleWebKit/537.36 (KHTML, like Gecko) Chrome/84.0.4147.135 Safari/537.36"
172.16.10.50 - - [21/Sep/2020:21:32:34 +0000] "GET /static/admin/css/responsive.css HTTP/1.1" 304 0 "http://172.16.69.110/admin/" "Mozilla/5.0 (Windows NT 10.0; Win64; x64) AppleWebKit/537.36 (KHTML, like Gecko) Chrome/84.0.4147.135 Safari/537.36"
172.16.10.50 - - [21/Sep/2020:21:32:34 +0000] "GET /static/admin/img/icon-addlink.svg HTTP/1.1" 304 0 "http://172.16.69.110/static/admin/css/base.css" "Mozilla/5.0 (Windows NT 10.0; Win64; x64) AppleWebKit/537.36 (KHTML, like Gecko) Chrome/84.0.4147.135 Safari/537.36"
172.16.10.50 - - [21/Sep/2020:21:32:34 +0000] "GET /static/admin/img/icon-changelink.svg HTTP/1.1" 304 0 "http://172.16.69.110/static/admin/css/base.css" "Mozilla/5.0 (Windows NT 10.0; Win64; x64) AppleWebKit/537.36 (KHTML, like Gecko) Chrome/84.0.4147.135 Safari/537.36"
172.16.10.50 - - [21/Sep/2020:21:32:34 +0000] "GET /static/admin/img/icon-deletelink.svg HTTP/1.1" 200 392 "http://172.16.69.110/static/admin/css/base.css" "Mozilla/5.0 (Windows NT 10.0; Win64; x64) AppleWebKit/537.36 (KHTML, like Gecko) Chrome/84.0.4147.135 Safari/537.36"
172.16.10.50 - - [22/Sep/2020:07:52:17 +0000] "GET / HTTP/1.1" 200 2817 "-" "Mozilla/5.0 (Windows NT 10.0; Win64; x64) AppleWebKit/537.36 (KHTML, like Gecko) Chrome/84.0.4147.135 Safari/537.36"
172.16.10.50 - - [22/Sep/2020:07:52:17 +0000] "GET /static/css/fullcalendar/main.min.css HTTP/1.1" 304 0 "http://172.16.69.110/" "Mozilla/5.0 (Windows NT 10.0; Win64; x64) AppleWebKit/537.36 (KHTML, like Gecko) Chrome/84.0.4147.135 Safari/537.36"
172.16.10.50 - - [22/Sep/2020:07:52:17 +0000] "GET /static/js/jQuery/jquery-3.5.1.min.js HTTP/1.1" 304 0 "http://172.16.69.110/" "Mozilla/5.0 (Windows NT 10.0; Win64; x64) AppleWebKit/537.36 (KHTML, like Gecko) Chrome/84.0.4147.135 Safari/537.36"
172.16.10.50 - - [22/Sep/2020:07:52:17 +0000] "GET /static/js/fullcalendar/main.js HTTP/1.1" 304 0 "http://172.16.69.110/" "Mozilla/5.0 (Windows NT 10.0; Win64; x64) AppleWebKit/537.36 (KHTML, like Gecko) Chrome/84.0.4147.135 Safari/537.36"
172.16.10.50 - - [22/Sep/2020:07:52:17 +0000] "GET /static/js/erp/planning.js HTTP/1.1" 304 0 "http://172.16.69.110/" "Mozilla/5.0 (Windows NT 10.0; Win64; x64) AppleWebKit/537.36 (KHTML, like Gecko) Chrome/84.0.4147.135 Safari/537.36"
172.16.10.50 - - [22/Sep/2020:07:52:17 +0000] "GET /static/js/erp/chart.js HTTP/1.1" 304 0 "http://172.16.69.110/" "Mozilla/5.0 (Windows NT 10.0; Win64; x64) AppleWebKit/537.36 (KHTML, like Gecko) Chrome/84.0.4147.135 Safari/537.36"
172.16.10.50 - - [22/Sep/2020:07:52:17 +0000] "GET /static/js/erp/setting/data.js HTTP/1.1" 304 0 "http://172.16.69.110/" "Mozilla/5.0 (Windows NT 10.0; Win64; x64) AppleWebKit/537.36 (KHTML, like Gecko) Chrome/84.0.4147.135 Safari/537.36"
172.16.10.50 - - [22/Sep/2020:07:52:17 +0000] "GET /static/js/erp/setting/graph.js HTTP/1.1" 304 0 "http://172.16.69.110/" "Mozilla/5.0 (Windows NT 10.0; Win64; x64) AppleWebKit/537.36 (KHTML, like Gecko) Chrome/84.0.4147.135 Safari/537.36"
172.16.10.50 - - [22/Sep/2020:07:52:17 +0000] "GET /static/js/erp/setting/notification.js HTTP/1.1" 304 0 "http://172.16.69.110/" "Mozilla/5.0 (Windows NT 10.0; Win64; x64) AppleWebKit/537.36 (KHTML, like Gecko) Chrome/84.0.4147.135 Safari/537.36"
172.16.10.50 - - [22/Sep/2020:07:52:19 +0000] "GET /erp/chart/get-charts/ HTTP/1.1" 200 14 "http://172.16.69.110/" "Mozilla/5.0 (Windows NT 10.0; Win64; x64) AppleWebKit/537.36 (KHTML, like Gecko) Chrome/84.0.4147.135 Safari/537.36"
172.16.10.50 - - [22/Sep/2020:07:52:27 +0000] "GET /erp/get-sub-module-index/Client/Client/ HTTP/1.1" 200 8958 "http://172.16.69.110/" "Mozilla/5.0 (Windows NT 10.0; Win64; x64) AppleWebKit/537.36 (KHTML, like Gecko) Chrome/84.0.4147.135 Safari/537.36"
172.16.10.50 - - [22/Sep/2020:07:52:27 +0000] "GET /erp/api/sub-module/Client/Client/?_=1600761092828 HTTP/1.1" 200 11 "http://172.16.69.110/" "Mozilla/5.0 (Windows NT 10.0; Win64; x64) AppleWebKit/537.36 (KHTML, like Gecko) Chrome/84.0.4147.135 Safari/537.36"
172.16.10.13 - - [22/Sep/2020:08:10:16 +0000] "HEAD /erp/api/sub-module/Produit/Produit HTTP/1.1" 301 0 "-" "python-requests/2.21.0"
172.16.10.13 - - [22/Sep/2020:08:10:16 +0000] "HEAD /erp/api/sub-module/Produit/Produit/ HTTP/1.1" 200 0 "-" "python-requests/2.21.0"
172.16.10.13 - - [22/Sep/2020:08:44:14 +0000] "HEAD /erp/api/sub-module/Produit/Produit HTTP/1.1" 301 0 "-" "python-requests/2.21.0"
172.16.10.13 - - [22/Sep/2020:08:44:14 +0000] "HEAD /erp/api/sub-module/Produit/Produit/ HTTP/1.1" 200 0 "-" "python-requests/2.21.0"
172.16.10.13 - - [22/Sep/2020:08:51:08 +0000] "GET /erp/api/sub-module/Produit/Produit HTTP/1.1" 301 0 "-" "python-requests/2.21.0"
172.16.10.13 - - [22/Sep/2020:08:51:08 +0000] "GET /erp/api/sub-module/Produit/Produit/ HTTP/1.1" 200 11 "-" "python-requests/2.21.0"
172.16.10.13 - - [22/Sep/2020:08:55:08 +0000] "GET /erp/api/sub-module/Produit/Produit HTTP/1.1" 301 0 "-" "python-requests/2.21.0"
172.16.10.13 - - [22/Sep/2020:08:55:08 +0000] "GET /erp/api/sub-module/Produit/Produit/ HTTP/1.1" 200 11 "-" "python-requests/2.21.0"
172.16.10.13 - - [22/Sep/2020:08:55:56 +0000] "GET /erp/api/sub-module/Produit/Produit HTTP/1.1" 301 0 "-" "python-requests/2.21.0"
172.16.10.13 - - [22/Sep/2020:08:55:56 +0000] "GET /erp/api/sub-module/Produit/Produit/ HTTP/1.1" 200 11 "-" "python-requests/2.21.0"
172.16.10.13 - - [22/Sep/2020:09:01:28 +0000] "GET /erp/api/sub-module/Produit/Produit HTTP/1.1" 301 0 "-" "python-requests/2.21.0"
172.16.10.13 - - [22/Sep/2020:09:01:28 +0000] "GET /erp/api/sub-module/Produit/Produit/ HTTP/1.1" 200 11 "-" "python-requests/2.21.0"
172.16.10.13 - - [22/Sep/2020:09:01:41 +0000] "GET /erp/api/sub-module/Produit/Produit HTTP/1.1" 301 0 "-" "python-requests/2.21.0"
172.16.10.13 - - [22/Sep/2020:09:01:41 +0000] "GET /erp/api/sub-module/Produit/Produit/ HTTP/1.1" 200 11 "-" "python-requests/2.21.0"
172.16.10.50 - - [22/Sep/2020:09:02:51 +0000] "GET /erp/api/sub-module/Client/Client/ HTTP/1.1" 200 2415 "-" "Mozilla/5.0 (Windows NT 10.0; Win64; x64) AppleWebKit/537.36 (KHTML, like Gecko) Chrome/84.0.4147.135 Safari/537.36"
172.16.10.50 - - [22/Sep/2020:09:03:00 +0000] "GET / HTTP/1.1" 200 2817 "-" "Mozilla/5.0 (Windows NT 10.0; Win64; x64) AppleWebKit/537.36 (KHTML, like Gecko) Chrome/84.0.4147.135 Safari/537.36"
172.16.10.50 - - [22/Sep/2020:09:03:16 +0000] "GET / HTTP/1.1" 200 2817 "-" "Mozilla/5.0 (Windows NT 10.0; Win64; x64) AppleWebKit/537.36 (KHTML, like Gecko) Chrome/84.0.4147.135 Safari/537.36"
172.16.10.50 - - [22/Sep/2020:09:03:17 +0000] "GET / HTTP/1.1" 200 2817 "-" "Mozilla/5.0 (Windows NT 10.0; Win64; x64) AppleWebKit/537.36 (KHTML, like Gecko) Chrome/84.0.4147.135 Safari/537.36"
172.16.10.50 - - [22/Sep/2020:09:03:19 +0000] "GET / HTTP/1.1" 200 2817 "-" "Mozilla/5.0 (Windows NT 10.0; Win64; x64) AppleWebKit/537.36 (KHTML, like Gecko) Chrome/84.0.4147.135 Safari/537.36"
172.16.10.50 - - [22/Sep/2020:09:03:20 +0000] "GET / HTTP/1.1" 200 2817 "-" "Mozilla/5.0 (Windows NT 10.0; Win64; x64) AppleWebKit/537.36 (KHTML, like Gecko) Chrome/84.0.4147.135 Safari/537.36"
172.16.10.50 - - [22/Sep/2020:09:03:26 +0000] "GET /erp/api/sub-module/Client/Client/ HTTP/1.1" 200 2416 "-" "Mozilla/5.0 (Windows NT 10.0; Win64; x64) AppleWebKit/537.36 (KHTML, like Gecko) Chrome/84.0.4147.135 Safari/537.36"
172.16.10.50 - - [22/Sep/2020:09:04:04 +0000] "GET / HTTP/1.1" 200 2817 "-" "Mozilla/5.0 (Windows NT 10.0; Win64; x64) AppleWebKit/537.36 (KHTML, like Gecko) Chrome/84.0.4147.135 Safari/537.36"
172.16.10.50 - - [22/Sep/2020:09:04:19 +0000] "GET / HTTP/1.1" 200 2817 "-" "Mozilla/5.0 (Windows NT 10.0; Win64; x64) AppleWebKit/537.36 (KHTML, like Gecko) Chrome/84.0.4147.135 Safari/537.36"
172.16.10.50 - - [22/Sep/2020:09:04:47 +0000] "GET / HTTP/1.1" 200 2817 "-" "Mozilla/5.0 (Windows NT 10.0; Win64; x64) AppleWebKit/537.36 (KHTML, like Gecko) Chrome/85.0.4183.102 Safari/537.36"
172.16.10.50 - - [22/Sep/2020:09:04:51 +0000] "GET /erp/chart/get-charts/ HTTP/1.1" 200 14 "http://172.16.69.110/" "Mozilla/5.0 (Windows NT 10.0; Win64; x64) AppleWebKit/537.36 (KHTML, like Gecko) Chrome/85.0.4183.102 Safari/537.36"
172.16.10.50 - - [22/Sep/2020:09:04:58 +0000] "GET /erp/chart/get-charts/ HTTP/1.1" 200 14 "http://172.16.69.110/" "Mozilla/5.0 (Windows NT 10.0; Win64; x64) AppleWebKit/537.36 (KHTML, like Gecko) Chrome/85.0.4183.102 Safari/537.36"
172.16.10.50 - - [22/Sep/2020:09:05:21 +0000] "GET /erp/api/sub-module/Client/Client/ HTTP/1.1" 200 2412 "-" "Mozilla/5.0 (Windows NT 10.0; Win64; x64) AppleWebKit/537.36 (KHTML, like Gecko) Chrome/85.0.4183.102 Safari/537.36"
172.16.10.50 - - [22/Sep/2020:09:05:23 +0000] "GET /favicon.ico HTTP/1.1" 404 1012 "http://172.16.69.110/erp/api/sub-module/Client/Client/" "Mozilla/5.0 (Windows NT 10.0; Win64; x64) AppleWebKit/537.36 (KHTML, like Gecko) Chrome/85.0.4183.102 Safari/537.36"
172.16.10.13 - - [22/Sep/2020:09:10:18 +0000] "GET /erp/api/sub-module/Produit/Produit HTTP/1.1" 301 0 "-" "python-requests/2.21.0"
172.16.10.13 - - [22/Sep/2020:09:10:18 +0000] "GET /erp/api/sub-module/Produit/Produit/ HTTP/1.1" 200 11 "-" "python-requests/2.21.0"
172.16.10.13 - - [22/Sep/2020:09:13:49 +0000] "GET /erp/api/sub-module/Produit/Produit HTTP/1.1" 301 0 "-" "python-requests/2.21.0"
172.16.10.13 - - [22/Sep/2020:09:13:49 +0000] "GET /erp/api/sub-module/Produit/Produit/ HTTP/1.1" 200 11 "-" "python-requests/2.21.0"
172.16.10.13 - - [22/Sep/2020:09:26:50 +0000] "GET /erp/api/sub-module/Produit/Produit HTTP/1.1" 301 0 "-" "python-requests/2.21.0"
172.16.10.13 - - [22/Sep/2020:09:26:50 +0000] "GET /erp/api/sub-module/Produit/Produit/ HTTP/1.1" 200 11 "-" "python-requests/2.21.0"
172.16.10.13 - - [22/Sep/2020:09:26:50 +0000] "POST /erp/api/sub-module/Produit/Produit HTTP/1.1" 500 62035 "-" "python-requests/2.21.0"
172.16.10.13 - - [22/Sep/2020:09:26:50 +0000] "GET /erp/api/sub-module/Produit/Produit HTTP/1.1" 301 0 "-" "python-requests/2.21.0"
172.16.10.13 - - [22/Sep/2020:09:26:50 +0000] "GET /erp/api/sub-module/Produit/Produit/ HTTP/1.1" 200 11 "-" "python-requests/2.21.0"
172.16.10.13 - - [22/Sep/2020:09:26:50 +0000] "POST /erp/api/sub-module/Produit/Produit HTTP/1.1" 500 62050 "-" "python-requests/2.21.0"
172.16.10.13 - - [22/Sep/2020:09:31:43 +0000] "GET /erp/api/sub-module/Produit/Produit HTTP/1.1" 301 0 "-" "python-requests/2.21.0"
172.16.10.13 - - [22/Sep/2020:09:31:43 +0000] "GET /erp/api/sub-module/Produit/Produit/ HTTP/1.1" 200 11 "-" "python-requests/2.21.0"
172.16.10.13 - - [22/Sep/2020:09:31:43 +0000] "POST /erp/api/sub-module/Produit/Produit HTTP/1.1" 500 62035 "-" "python-requests/2.21.0"
172.16.10.13 - - [22/Sep/2020:09:31:44 +0000] "GET /erp/api/sub-module/Produit/Produit HTTP/1.1" 301 0 "-" "python-requests/2.21.0"
172.16.10.13 - - [22/Sep/2020:09:31:44 +0000] "GET /erp/api/sub-module/Produit/Produit/ HTTP/1.1" 200 11 "-" "python-requests/2.21.0"
172.16.10.13 - - [22/Sep/2020:09:35:47 +0000] "GET /erp/api/sub-module/Produit/Produit HTTP/1.1" 301 0 "-" "python-requests/2.21.0"
172.16.10.13 - - [22/Sep/2020:09:35:47 +0000] "GET /erp/api/sub-module/Produit/Produit/ HTTP/1.1" 200 11 "-" "python-requests/2.21.0"
172.16.10.13 - - [22/Sep/2020:09:43:48 +0000] "GET /erp/api/sub-module/Produit/Produit HTTP/1.1" 301 0 "-" "python-requests/2.21.0"
172.16.10.13 - - [22/Sep/2020:09:43:48 +0000] "GET /erp/api/sub-module/Produit/Produit/ HTTP/1.1" 200 11 "-" "python-requests/2.21.0"
172.16.10.13 - - [22/Sep/2020:09:45:11 +0000] "GET /erp/api/sub-module/Produit/Produit HTTP/1.1" 301 0 "-" "python-requests/2.21.0"
172.16.10.13 - - [22/Sep/2020:09:45:11 +0000] "GET /erp/api/sub-module/Produit/Produit/ HTTP/1.1" 200 11 "-" "python-requests/2.21.0"
172.16.10.13 - - [22/Sep/2020:09:46:37 +0000] "GET /erp/api/sub-module/Produit/Produit HTTP/1.1" 301 0 "-" "python-requests/2.21.0"
172.16.10.13 - - [22/Sep/2020:09:46:37 +0000] "GET /erp/api/sub-module/Produit/Produit/ HTTP/1.1" 200 11 "-" "python-requests/2.21.0"
172.16.10.50 - - [22/Sep/2020:09:50:22 +0000] "GET /erp/chart/get-charts/ HTTP/1.1" 200 14 "http://172.16.69.110/" "Mozilla/5.0 (Windows NT 10.0; Win64; x64) AppleWebKit/537.36 (KHTML, like Gecko) Chrome/85.0.4183.102 Safari/537.36"
172.16.10.50 - - [22/Sep/2020:09:50:25 +0000] "GET /erp/planning/ HTTP/1.1" 200 92 "http://172.16.69.110/" "Mozilla/5.0 (Windows NT 10.0; Win64; x64) AppleWebKit/537.36 (KHTML, like Gecko) Chrome/85.0.4183.102 Safari/537.36"
172.16.10.50 - - [22/Sep/2020:09:50:25 +0000] "GET /erp/planning/events/ HTTP/1.1" 200 13 "http://172.16.69.110/" "Mozilla/5.0 (Windows NT 10.0; Win64; x64) AppleWebKit/537.36 (KHTML, like Gecko) Chrome/85.0.4183.102 Safari/537.36"
172.16.10.50 - - [22/Sep/2020:09:54:36 +0000] "GET /erp/get-sub-module-index/Produit/Type%20de%20Produit/ HTTP/1.1" 200 5824 "http://172.16.69.110/" "Mozilla/5.0 (Windows NT 10.0; Win64; x64) AppleWebKit/537.36 (KHTML, like Gecko) Chrome/85.0.4183.102 Safari/537.36"
172.16.10.50 - - [22/Sep/2020:09:54:36 +0000] "GET /erp/api/sub-module/Produit/Type-de-Produit/?_=1600768176090 HTTP/1.1" 200 11 "http://172.16.69.110/" "Mozilla/5.0 (Windows NT 10.0; Win64; x64) AppleWebKit/537.36 (KHTML, like Gecko) Chrome/85.0.4183.102 Safari/537.36"
172.16.10.50 - - [22/Sep/2020:09:55:23 +0000] "GET /erp/get-sub-module-index/Production/Mati%C3%A8re%20Premi%C3%A8re/ HTTP/1.1" 200 7150 "http://172.16.69.110/" "Mozilla/5.0 (Windows NT 10.0; Win64; x64) AppleWebKit/537.36 (KHTML, like Gecko) Chrome/85.0.4183.102 Safari/537.36"
172.16.10.50 - - [22/Sep/2020:09:55:24 +0000] "GET /erp/api/sub-module/Production/Mati%C3%A8re-Premi%C3%A8re/?_=1600768176091 HTTP/1.1" 200 11 "http://172.16.69.110/" "Mozilla/5.0 (Windows NT 10.0; Win64; x64) AppleWebKit/537.36 (KHTML, like Gecko) Chrome/85.0.4183.102 Safari/537.36"
172.16.10.50 - - [22/Sep/2020:09:55:33 +0000] "GET /erp/get-sub-module-index/Production/Nomenclature/ HTTP/1.1" 200 7829 "http://172.16.69.110/" "Mozilla/5.0 (Windows NT 10.0; Win64; x64) AppleWebKit/537.36 (KHTML, like Gecko) Chrome/85.0.4183.102 Safari/537.36"
172.16.10.50 - - [22/Sep/2020:09:55:33 +0000] "GET /erp/api/sub-module/Production/Nomenclature/?_=1600768176092 HTTP/1.1" 200 11 "http://172.16.69.110/" "Mozilla/5.0 (Windows NT 10.0; Win64; x64) AppleWebKit/537.36 (KHTML, like Gecko) Chrome/85.0.4183.102 Safari/537.36"
172.16.10.50 - - [22/Sep/2020:10:00:34 +0000] "GET /erp/get-sub-module-index/Inventaire%20Stock/Inventaire/ HTTP/1.1" 200 7844 "http://172.16.69.110/" "Mozilla/5.0 (Windows NT 10.0; Win64; x64) AppleWebKit/537.36 (KHTML, like Gecko) Chrome/85.0.4183.102 Safari/537.36"
172.16.10.50 - - [22/Sep/2020:10:00:34 +0000] "GET /erp/api/sub-module/Inventaire%20Stock/Inventaire/?_=1600768176093 HTTP/1.1" 200 11 "http://172.16.69.110/" "Mozilla/5.0 (Windows NT 10.0; Win64; x64) AppleWebKit/537.36 (KHTML, like Gecko) Chrome/85.0.4183.102 Safari/537.36"
172.16.10.50 - - [22/Sep/2020:10:03:54 +0000] "GET /erp/api/sub-module/Inventaire-Stock/Livaison HTTP/1.1" 301 0 "-" "Mozilla/5.0 (Windows NT 10.0; Win64; x64) AppleWebKit/537.36 (KHTML, like Gecko) Chrome/85.0.4183.102 Safari/537.36"
172.16.10.50 - - [22/Sep/2020:10:03:54 +0000] "GET /erp/api/sub-module/Inventaire-Stock/Livaison/ HTTP/1.1" 404 2458 "-" "Mozilla/5.0 (Windows NT 10.0; Win64; x64) AppleWebKit/537.36 (KHTML, like Gecko) Chrome/85.0.4183.102 Safari/537.36"
172.16.10.50 - - [22/Sep/2020:10:03:54 +0000] "GET /static/rest_framework/css/bootstrap.min.css HTTP/1.1" 304 0 "http://172.16.69.110/erp/api/sub-module/Inventaire-Stock/Livaison/" "Mozilla/5.0 (Windows NT 10.0; Win64; x64) AppleWebKit/537.36 (KHTML, like Gecko) Chrome/85.0.4183.102 Safari/537.36"
172.16.10.50 - - [22/Sep/2020:10:03:54 +0000] "GET /static/rest_framework/css/bootstrap-tweaks.css HTTP/1.1" 304 0 "http://172.16.69.110/erp/api/sub-module/Inventaire-Stock/Livaison/" "Mozilla/5.0 (Windows NT 10.0; Win64; x64) AppleWebKit/537.36 (KHTML, like Gecko) Chrome/85.0.4183.102 Safari/537.36"
172.16.10.50 - - [22/Sep/2020:10:03:54 +0000] "GET /static/rest_framework/css/prettify.css HTTP/1.1" 304 0 "http://172.16.69.110/erp/api/sub-module/Inventaire-Stock/Livaison/" "Mozilla/5.0 (Windows NT 10.0; Win64; x64) AppleWebKit/537.36 (KHTML, like Gecko) Chrome/85.0.4183.102 Safari/537.36"
172.16.10.50 - - [22/Sep/2020:10:03:54 +0000] "GET /static/rest_framework/css/default.css HTTP/1.1" 304 0 "http://172.16.69.110/erp/api/sub-module/Inventaire-Stock/Livaison/" "Mozilla/5.0 (Windows NT 10.0; Win64; x64) AppleWebKit/537.36 (KHTML, like Gecko) Chrome/85.0.4183.102 Safari/537.36"
172.16.10.50 - - [22/Sep/2020:10:03:54 +0000] "GET /static/rest_framework/js/jquery-3.4.1.min.js HTTP/1.1" 304 0 "http://172.16.69.110/erp/api/sub-module/Inventaire-Stock/Livaison/" "Mozilla/5.0 (Windows NT 10.0; Win64; x64) AppleWebKit/537.36 (KHTML, like Gecko) Chrome/85.0.4183.102 Safari/537.36"
172.16.10.50 - - [22/Sep/2020:10:03:54 +0000] "GET /static/rest_framework/js/ajax-form.js HTTP/1.1" 304 0 "http://172.16.69.110/erp/api/sub-module/Inventaire-Stock/Livaison/" "Mozilla/5.0 (Windows NT 10.0; Win64; x64) AppleWebKit/537.36 (KHTML, like Gecko) Chrome/85.0.4183.102 Safari/537.36"
172.16.10.50 - - [22/Sep/2020:10:03:54 +0000] "GET /static/rest_framework/js/csrf.js HTTP/1.1" 304 0 "http://172.16.69.110/erp/api/sub-module/Inventaire-Stock/Livaison/" "Mozilla/5.0 (Windows NT 10.0; Win64; x64) AppleWebKit/537.36 (KHTML, like Gecko) Chrome/85.0.4183.102 Safari/537.36"
172.16.10.50 - - [22/Sep/2020:10:03:54 +0000] "GET /static/rest_framework/js/bootstrap.min.js HTTP/1.1" 304 0 "http://172.16.69.110/erp/api/sub-module/Inventaire-Stock/Livaison/" "Mozilla/5.0 (Windows NT 10.0; Win64; x64) AppleWebKit/537.36 (KHTML, like Gecko) Chrome/85.0.4183.102 Safari/537.36"
172.16.10.50 - - [22/Sep/2020:10:03:54 +0000] "GET /static/rest_framework/js/prettify-min.js HTTP/1.1" 304 0 "http://172.16.69.110/erp/api/sub-module/Inventaire-Stock/Livaison/" "Mozilla/5.0 (Windows NT 10.0; Win64; x64) AppleWebKit/537.36 (KHTML, like Gecko) Chrome/85.0.4183.102 Safari/537.36"
172.16.10.50 - - [22/Sep/2020:10:03:54 +0000] "GET /static/rest_framework/js/default.js HTTP/1.1" 304 0 "http://172.16.69.110/erp/api/sub-module/Inventaire-Stock/Livaison/" "Mozilla/5.0 (Windows NT 10.0; Win64; x64) AppleWebKit/537.36 (KHTML, like Gecko) Chrome/85.0.4183.102 Safari/537.36"
172.16.10.50 - - [22/Sep/2020:10:03:54 +0000] "GET /static/rest_framework/img/grid.png HTTP/1.1" 304 0 "http://172.16.69.110/static/rest_framework/css/bootstrap-tweaks.css" "Mozilla/5.0 (Windows NT 10.0; Win64; x64) AppleWebKit/537.36 (KHTML, like Gecko) Chrome/85.0.4183.102 Safari/537.36"
172.16.10.50 - - [22/Sep/2020:10:04:04 +0000] "GET /erp/api/sub-module/Inventaire-Stock/Livraison/ HTTP/1.1" 404 2461 "-" "Mozilla/5.0 (Windows NT 10.0; Win64; x64) AppleWebKit/537.36 (KHTML, like Gecko) Chrome/85.0.4183.102 Safari/537.36"
172.16.10.50 - - [22/Sep/2020:10:04:07 +0000] "GET /erp/api/sub-module/Inventaire-Stock/Livraison/ HTTP/1.1" 404 2459 "-" "Mozilla/5.0 (Windows NT 10.0; Win64; x64) AppleWebKit/537.36 (KHTML, like Gecko) Chrome/85.0.4183.102 Safari/537.36"
172.16.10.50 - - [22/Sep/2020:10:05:58 +0000] "GET / HTTP/1.1" 200 2817 "-" "Mozilla/5.0 (Windows NT 10.0; Win64; x64) AppleWebKit/537.36 (KHTML, like Gecko) Chrome/85.0.4183.102 Safari/537.36"
172.16.10.50 - - [22/Sep/2020:10:05:58 +0000] "GET /static/css/fullcalendar/main.min.css HTTP/1.1" 304 0 "http://172.16.69.110/" "Mozilla/5.0 (Windows NT 10.0; Win64; x64) AppleWebKit/537.36 (KHTML, like Gecko) Chrome/85.0.4183.102 Safari/537.36"
172.16.10.50 - - [22/Sep/2020:10:05:58 +0000] "GET /static/js/jQuery/jquery-3.5.1.min.js HTTP/1.1" 304 0 "http://172.16.69.110/" "Mozilla/5.0 (Windows NT 10.0; Win64; x64) AppleWebKit/537.36 (KHTML, like Gecko) Chrome/85.0.4183.102 Safari/537.36"
172.16.10.50 - - [22/Sep/2020:10:05:58 +0000] "GET /static/js/fullcalendar/main.js HTTP/1.1" 304 0 "http://172.16.69.110/" "Mozilla/5.0 (Windows NT 10.0; Win64; x64) AppleWebKit/537.36 (KHTML, like Gecko) Chrome/85.0.4183.102 Safari/537.36"
172.16.10.50 - - [22/Sep/2020:10:05:58 +0000] "GET /static/js/erp/planning.js HTTP/1.1" 304 0 "http://172.16.69.110/" "Mozilla/5.0 (Windows NT 10.0; Win64; x64) AppleWebKit/537.36 (KHTML, like Gecko) Chrome/85.0.4183.102 Safari/537.36"
172.16.10.50 - - [22/Sep/2020:10:05:58 +0000] "GET /static/js/erp/chart.js HTTP/1.1" 304 0 "http://172.16.69.110/" "Mozilla/5.0 (Windows NT 10.0; Win64; x64) AppleWebKit/537.36 (KHTML, like Gecko) Chrome/85.0.4183.102 Safari/537.36"
172.16.10.50 - - [22/Sep/2020:10:05:58 +0000] "GET /static/js/erp/setting/data.js HTTP/1.1" 304 0 "http://172.16.69.110/" "Mozilla/5.0 (Windows NT 10.0; Win64; x64) AppleWebKit/537.36 (KHTML, like Gecko) Chrome/85.0.4183.102 Safari/537.36"
172.16.10.50 - - [22/Sep/2020:10:05:58 +0000] "GET /static/js/erp/setting/graph.js HTTP/1.1" 304 0 "http://172.16.69.110/" "Mozilla/5.0 (Windows NT 10.0; Win64; x64) AppleWebKit/537.36 (KHTML, like Gecko) Chrome/85.0.4183.102 Safari/537.36"
172.16.10.50 - - [22/Sep/2020:10:05:58 +0000] "GET /static/js/erp/setting/notification.js HTTP/1.1" 304 0 "http://172.16.69.110/" "Mozilla/5.0 (Windows NT 10.0; Win64; x64) AppleWebKit/537.36 (KHTML, like Gecko) Chrome/85.0.4183.102 Safari/537.36"
172.16.10.50 - - [22/Sep/2020:10:05:59 +0000] "GET /erp/chart/get-charts/ HTTP/1.1" 200 14 "http://172.16.69.110/" "Mozilla/5.0 (Windows NT 10.0; Win64; x64) AppleWebKit/537.36 (KHTML, like Gecko) Chrome/85.0.4183.102 Safari/537.36"
172.16.10.50 - - [22/Sep/2020:10:06:03 +0000] "GET /admin/ HTTP/1.1" 200 2066 "-" "Mozilla/5.0 (Windows NT 10.0; Win64; x64) AppleWebKit/537.36 (KHTML, like Gecko) Chrome/85.0.4183.102 Safari/537.36"
172.16.10.50 - - [22/Sep/2020:10:06:03 +0000] "GET /static/admin/css/base.css HTTP/1.1" 304 0 "http://172.16.69.110/admin/" "Mozilla/5.0 (Windows NT 10.0; Win64; x64) AppleWebKit/537.36 (KHTML, like Gecko) Chrome/85.0.4183.102 Safari/537.36"
172.16.10.50 - - [22/Sep/2020:10:06:03 +0000] "GET /static/admin/css/dashboard.css HTTP/1.1" 304 0 "http://172.16.69.110/admin/" "Mozilla/5.0 (Windows NT 10.0; Win64; x64) AppleWebKit/537.36 (KHTML, like Gecko) Chrome/85.0.4183.102 Safari/537.36"
172.16.10.50 - - [22/Sep/2020:10:06:03 +0000] "GET /static/admin/css/responsive.css HTTP/1.1" 304 0 "http://172.16.69.110/admin/" "Mozilla/5.0 (Windows NT 10.0; Win64; x64) AppleWebKit/537.36 (KHTML, like Gecko) Chrome/85.0.4183.102 Safari/537.36"
172.16.10.50 - - [22/Sep/2020:10:06:04 +0000] "GET /admin/ HTTP/1.1" 200 2066 "-" "Mozilla/5.0 (Windows NT 10.0; Win64; x64) AppleWebKit/537.36 (KHTML, like Gecko) Chrome/85.0.4183.102 Safari/537.36"
172.16.10.50 - - [22/Sep/2020:10:06:04 +0000] "GET /static/admin/img/icon-addlink.svg HTTP/1.1" 304 0 "http://172.16.69.110/static/admin/css/base.css" "Mozilla/5.0 (Windows NT 10.0; Win64; x64) AppleWebKit/537.36 (KHTML, like Gecko) Chrome/85.0.4183.102 Safari/537.36"
172.16.10.50 - - [22/Sep/2020:10:06:04 +0000] "GET /static/admin/img/icon-changelink.svg HTTP/1.1" 304 0 "http://172.16.69.110/static/admin/css/base.css" "Mozilla/5.0 (Windows NT 10.0; Win64; x64) AppleWebKit/537.36 (KHTML, like Gecko) Chrome/85.0.4183.102 Safari/537.36"
172.16.10.50 - - [22/Sep/2020:10:06:04 +0000] "GET /static/admin/img/icon-deletelink.svg HTTP/1.1" 304 0 "http://172.16.69.110/static/admin/css/base.css" "Mozilla/5.0 (Windows NT 10.0; Win64; x64) AppleWebKit/537.36 (KHTML, like Gecko) Chrome/85.0.4183.102 Safari/537.36"
172.16.10.50 - - [22/Sep/2020:10:06:12 +0000] "GET /admin/erp/submodule/ HTTP/1.1" 200 2133 "http://172.16.69.110/admin/" "Mozilla/5.0 (Windows NT 10.0; Win64; x64) AppleWebKit/537.36 (KHTML, like Gecko) Chrome/85.0.4183.102 Safari/537.36"
172.16.10.50 - - [22/Sep/2020:10:06:12 +0000] "GET /static/admin/css/changelists.css HTTP/1.1" 304 0 "http://172.16.69.110/admin/erp/submodule/" "Mozilla/5.0 (Windows NT 10.0; Win64; x64) AppleWebKit/537.36 (KHTML, like Gecko) Chrome/85.0.4183.102 Safari/537.36"
172.16.10.50 - - [22/Sep/2020:10:06:12 +0000] "GET /static/admin/js/vendor/jquery/jquery.js HTTP/1.1" 304 0 "http://172.16.69.110/admin/erp/submodule/" "Mozilla/5.0 (Windows NT 10.0; Win64; x64) AppleWebKit/537.36 (KHTML, like Gecko) Chrome/85.0.4183.102 Safari/537.36"
172.16.10.50 - - [22/Sep/2020:10:06:12 +0000] "GET /static/admin/js/jquery.init.js HTTP/1.1" 304 0 "http://172.16.69.110/admin/erp/submodule/" "Mozilla/5.0 (Windows NT 10.0; Win64; x64) AppleWebKit/537.36 (KHTML, like Gecko) Chrome/85.0.4183.102 Safari/537.36"
172.16.10.50 - - [22/Sep/2020:10:06:12 +0000] "GET /static/admin/js/core.js HTTP/1.1" 304 0 "http://172.16.69.110/admin/erp/submodule/" "Mozilla/5.0 (Windows NT 10.0; Win64; x64) AppleWebKit/537.36 (KHTML, like Gecko) Chrome/85.0.4183.102 Safari/537.36"
172.16.10.50 - - [22/Sep/2020:10:06:12 +0000] "GET /static/admin/js/admin/RelatedObjectLookups.js HTTP/1.1" 304 0 "http://172.16.69.110/admin/erp/submodule/" "Mozilla/5.0 (Windows NT 10.0; Win64; x64) AppleWebKit/537.36 (KHTML, like Gecko) Chrome/85.0.4183.102 Safari/537.36"
172.16.10.50 - - [22/Sep/2020:10:06:12 +0000] "GET /static/admin/js/actions.js HTTP/1.1" 304 0 "http://172.16.69.110/admin/erp/submodule/" "Mozilla/5.0 (Windows NT 10.0; Win64; x64) AppleWebKit/537.36 (KHTML, like Gecko) Chrome/85.0.4183.102 Safari/537.36"
172.16.10.50 - - [22/Sep/2020:10:06:12 +0000] "GET /admin/jsi18n/ HTTP/1.1" 200 7403 "http://172.16.69.110/admin/erp/submodule/" "Mozilla/5.0 (Windows NT 10.0; Win64; x64) AppleWebKit/537.36 (KHTML, like Gecko) Chrome/85.0.4183.102 Safari/537.36"
172.16.10.50 - - [22/Sep/2020:10:06:12 +0000] "GET /static/admin/js/urlify.js HTTP/1.1" 304 0 "http://172.16.69.110/admin/erp/submodule/" "Mozilla/5.0 (Windows NT 10.0; Win64; x64) AppleWebKit/537.36 (KHTML, like Gecko) Chrome/85.0.4183.102 Safari/537.36"
172.16.10.50 - - [22/Sep/2020:10:06:12 +0000] "GET /static/admin/js/prepopulate.js HTTP/1.1" 304 0 "http://172.16.69.110/admin/erp/submodule/" "Mozilla/5.0 (Windows NT 10.0; Win64; x64) AppleWebKit/537.36 (KHTML, like Gecko) Chrome/85.0.4183.102 Safari/537.36"
172.16.10.50 - - [22/Sep/2020:10:06:12 +0000] "GET /static/admin/js/vendor/xregexp/xregexp.js HTTP/1.1" 304 0 "http://172.16.69.110/admin/erp/submodule/" "Mozilla/5.0 (Windows NT 10.0; Win64; x64) AppleWebKit/537.36 (KHTML, like Gecko) Chrome/85.0.4183.102 Safari/537.36"
172.16.10.50 - - [22/Sep/2020:10:06:13 +0000] "GET /static/admin/img/tooltag-add.svg HTTP/1.1" 304 0 "http://172.16.69.110/static/admin/css/base.css" "Mozilla/5.0 (Windows NT 10.0; Win64; x64) AppleWebKit/537.36 (KHTML, like Gecko) Chrome/85.0.4183.102 Safari/537.36"
172.16.10.50 - - [22/Sep/2020:10:06:20 +0000] "GET /admin/erp/submodule/9/change/ HTTP/1.1" 200 2464 "http://172.16.69.110/admin/erp/submodule/" "Mozilla/5.0 (Windows NT 10.0; Win64; x64) AppleWebKit/537.36 (KHTML, like Gecko) Chrome/85.0.4183.102 Safari/537.36"
172.16.10.50 - - [22/Sep/2020:10:06:20 +0000] "GET /static/admin/css/forms.css HTTP/1.1" 304 0 "http://172.16.69.110/admin/erp/submodule/9/change/" "Mozilla/5.0 (Windows NT 10.0; Win64; x64) AppleWebKit/537.36 (KHTML, like Gecko) Chrome/85.0.4183.102 Safari/537.36"
172.16.10.50 - - [22/Sep/2020:10:06:20 +0000] "GET /admin/jsi18n/ HTTP/1.1" 200 7403 "http://172.16.69.110/admin/erp/submodule/9/change/" "Mozilla/5.0 (Windows NT 10.0; Win64; x64) AppleWebKit/537.36 (KHTML, like Gecko) Chrome/85.0.4183.102 Safari/537.36"
172.16.10.50 - - [22/Sep/2020:10:06:20 +0000] "GET /static/admin/js/change_form.js HTTP/1.1" 304 0 "http://172.16.69.110/admin/erp/submodule/9/change/" "Mozilla/5.0 (Windows NT 10.0; Win64; x64) AppleWebKit/537.36 (KHTML, like Gecko) Chrome/85.0.4183.102 Safari/537.36"
172.16.10.50 - - [22/Sep/2020:10:06:20 +0000] "GET /static/admin/css/widgets.css HTTP/1.1" 304 0 "http://172.16.69.110/static/admin/css/forms.css" "Mozilla/5.0 (Windows NT 10.0; Win64; x64) AppleWebKit/537.36 (KHTML, like Gecko) Chrome/85.0.4183.102 Safari/537.36"
172.16.10.50 - - [22/Sep/2020:10:06:21 +0000] "GET /static/admin/js/prepopulate_init.js HTTP/1.1" 304 0 "http://172.16.69.110/admin/erp/submodule/9/change/" "Mozilla/5.0 (Windows NT 10.0; Win64; x64) AppleWebKit/537.36 (KHTML, like Gecko) Chrome/85.0.4183.102 Safari/537.36"
172.16.10.50 - - [22/Sep/2020:10:06:34 +0000] "GET /erp/api/sub-module/Inventaire-Stock/Livraison HTTP/1.1" 301 0 "-" "Mozilla/5.0 (Windows NT 10.0; Win64; x64) AppleWebKit/537.36 (KHTML, like Gecko) Chrome/85.0.4183.102 Safari/537.36"
172.16.10.50 - - [22/Sep/2020:10:06:34 +0000] "GET /erp/api/sub-module/Inventaire-Stock/Livraison/ HTTP/1.1" 404 2459 "-" "Mozilla/5.0 (Windows NT 10.0; Win64; x64) AppleWebKit/537.36 (KHTML, like Gecko) Chrome/85.0.4183.102 Safari/537.36"
172.16.10.50 - - [22/Sep/2020:10:06:46 +0000] "GET /erp/get-sub-module-index/Inventaire%20Stock/Livraison/ HTTP/1.1" 200 12738 "http://172.16.69.110/" "Mozilla/5.0 (Windows NT 10.0; Win64; x64) AppleWebKit/537.36 (KHTML, like Gecko) Chrome/85.0.4183.102 Safari/537.36"
172.16.10.50 - - [22/Sep/2020:10:06:46 +0000] "GET /erp/api/sub-module/Inventaire%20Stock/Livraison/?_=1600768176094 HTTP/1.1" 200 11 "http://172.16.69.110/" "Mozilla/5.0 (Windows NT 10.0; Win64; x64) AppleWebKit/537.36 (KHTML, like Gecko) Chrome/85.0.4183.102 Safari/537.36"
172.16.10.50 - - [22/Sep/2020:10:06:50 +0000] "GET /static/js/bootstrap/popper.min.js.map HTTP/1.1" 404 200 "-" "Mozilla/5.0 (Windows NT 10.0; Win64; x64) AppleWebKit/537.36 (KHTML, like Gecko) Chrome/85.0.4183.102 Safari/537.36"
172.16.10.50 - - [22/Sep/2020:10:06:50 +0000] "GET /static/js/bootstrap/bootstrap.min.js.map HTTP/1.1" 404 200 "-" "Mozilla/5.0 (Windows NT 10.0; Win64; x64) AppleWebKit/537.36 (KHTML, like Gecko) Chrome/85.0.4183.102 Safari/537.36"
172.16.10.50 - - [22/Sep/2020:10:06:50 +0000] "GET /static/js/datatable/pdfmake.min.js.map HTTP/1.1" 404 200 "-" "Mozilla/5.0 (Windows NT 10.0; Win64; x64) AppleWebKit/537.36 (KHTML, like Gecko) Chrome/85.0.4183.102 Safari/537.36"
172.16.10.50 - - [22/Sep/2020:10:06:50 +0000] "GET /static/css/bootstrap/bootstrap.min.css.map HTTP/1.1" 404 200 "-" "Mozilla/5.0 (Windows NT 10.0; Win64; x64) AppleWebKit/537.36 (KHTML, like Gecko) Chrome/85.0.4183.102 Safari/537.36"
172.16.10.50 - - [22/Sep/2020:10:07:03 +0000] "GET /erp/get-sub-module-index/Inventaire%20Stock/Livraison/ HTTP/1.1" 200 12738 "http://172.16.69.110/" "Mozilla/5.0 (Windows NT 10.0; Win64; x64) AppleWebKit/537.36 (KHTML, like Gecko) Chrome/85.0.4183.102 Safari/537.36"
172.16.10.50 - - [22/Sep/2020:10:07:04 +0000] "GET /erp/api/sub-module/Inventaire%20Stock/Livraison/?_=1600768176095 HTTP/1.1" 200 11 "http://172.16.69.110/" "Mozilla/5.0 (Windows NT 10.0; Win64; x64) AppleWebKit/537.36 (KHTML, like Gecko) Chrome/85.0.4183.102 Safari/537.36"
172.16.10.50 - - [22/Sep/2020:10:07:41 +0000] "GET /erp/api/sub-module/Inventaire-Stock/Livraison/ HTTP/1.1" 404 2461 "-" "Mozilla/5.0 (Windows NT 10.0; Win64; x64) AppleWebKit/537.36 (KHTML, like Gecko) Chrome/85.0.4183.102 Safari/537.36"
